{
  "@context": "https://raw.githubusercontent.com/codemeta/codemeta/master/codemeta.jsonld",
  "@type": "Code",
  "author": [
    "Nicolas Cellier"
  ],
  "identifier": "",
  "codeRepository": "https://gitlab.com/celliern/scikit-fdiff/",
  "datePublished": "2019-03-18",
  "dateModified": "2019-03-18",
  "dateCreated": "2019-03-18",
  "description": "Scikit-fdiff is a python library that aim to solve partial derivative equations without pain.",
  "keywords": "python, pde, physical modelling",
  "license": "MIT",
  "title": "Scikit-fdiff",
  "version": "v0.6.0rc1"
}